[
	{
		"fileName": "1.png",
		"description": "1"
	},
	{
		"fileName": "2.png",
		"description": "2"
	},
	{
		"fileName": "3.png",
		"description": "3"
	},
	{
		"fileName": "4.png",
		"description": "4"
	},
	{
		"fileName": "5.png",
		"description": "5"
	},
	{
		"fileName": "6.png",
		"description": "6"
	},
	{
		"fileName": "7.png",
		"description": "7"
	},
	{
		"fileName": "8.png",
		"description": "8"
	},
	{
		"fileName": "9.png",
		"description": "9"
	},
	{
		"fileName": "10.png",
		"description": "10"
	},
	{
		"fileName": "11.png",
		"description": "11"
	},
	{
		"fileName": "12.png",
		"description": "12"
	},
	{
		"fileName": "13.png",
		"description": "13"
	},
	{
		"fileName": "14.png",
		"description": "14"
	},
	{
		"fileName": "15.png",
		"description": "15"
	},
	{
		"fileName": "16.png",
		"description": "16"
	},
	{
		"fileName": "17.png",
		"description": "17"
	},
	{
		"fileName": "18.png",
		"description": "18"
	},
	{
		"fileName": "19.png",
		"description": "19"
	},
	{
		"fileName": "20.png",
		"description": "20"
	},
	{
		"fileName": "21.png",
		"description": "21"
	},
	{
		"fileName": "22.png",
		"description": "22"
	},
	{
		"fileName": "23.png",
		"description": "23"
	},
	{
		"fileName": "24.png",
		"description": "24"
	},
]